{
  "cordova-plugin-device": {
    "source": {
      "type": "registry",
      "id": "cordova-plugin-device"
    },
    "is_top_level": true,
    "variables": {}
  },
  "cordova-plugin-console": {
    "source": {
      "type": "registry",
      "id": "cordova-plugin-console"
    },
    "is_top_level": true,
    "variables": {}
  },
  "cordova-plugin-whitelist": {
    "source": {
      "type": "registry",
      "id": "cordova-plugin-whitelist"
    },
    "is_top_level": true,
    "variables": {}
  },
  "cordova-plugin-splashscreen": {
    "source": {
      "type": "registry",
      "id": "cordova-plugin-splashscreen"
    },
    "is_top_level": true,
    "variables": {}
  },
  "cordova-plugin-statusbar": {
    "source": {
      "type": "registry",
      "id": "cordova-plugin-statusbar"
    },
    "is_top_level": true,
    "variables": {}
  },
  "ionic-plugin-keyboard": {
    "source": {
      "type": "registry",
      "id": "ionic-plugin-keyboard"
    },
    "is_top_level": true,
    "variables": {}
  },
  "cordova-plugin-camera": {
    "source": {
      "type": "registry",
      "id": "cordova-plugin-camera"
    },
    "is_top_level": true,
    "variables": {}
  },
  "cordova-plugin-compat": {
    "source": {
      "type": "registry",
      "id": "cordova-plugin-compat"
    },
    "is_top_level": false,
    "variables": {}
  },
  "cordova-sqlite-storage": {
    "source": {
      "type": "git",
      "url": "https://github.com/litehelpers/Cordova-sqlite-storage.git",
      "subdir": "."
    },
    "is_top_level": true,
    "variables": {}
  },
  "cordova-plugin-file": {
    "source": {
      "type": "registry",
      "id": "cordova-plugin-file"
    },
    "is_top_level": true,
    "variables": {}
  },
  "cordova-plugin-file-transfer": {
    "source": {
      "type": "registry",
      "id": "cordova-plugin-file-transfer"
    },
    "is_top_level": true,
    "variables": {}
  },
  "cordova-plugin-x-toast": {
    "source": {
      "type": "registry",
      "id": "cordova-plugin-x-toast"
    },
    "is_top_level": true,
    "variables": {}
  },
  "cordova-plugin-crosswalk-webview": {
    "source": {
      "type": "registry",
      "id": "cordova-plugin-crosswalk-webview@2.1.0"
    },
    "is_top_level": true,
    "variables": {}
  },
  "cordova-plugin-google-analytics": {
    "source": {
      "type": "git",
      "url": "https://github.com/danwilson/google-analytics-plugin.git",
      "subdir": "."
    },
    "is_top_level": true,
    "variables": {}
  },
  "onesignal-cordova-plugin": {
    "source": {
      "type": "registry",
      "id": "onesignal-cordova-plugin"
    },
    "is_top_level": true,
    "variables": {}
  },
  "org.sfl.MediaScannerPlugin": {
    "source": {
      "type": "git",
      "url": "https://github.com/peteygao/MediaScannerPlugin.git",
      "subdir": "."
    },
    "is_top_level": true,
    "variables": {}
  },
  "cordova-plugin-vibration": {
    "source": {
      "type": "registry",
      "id": "cordova-plugin-vibration"
    },
    "is_top_level": true,
    "variables": {}
  },
  "cordova-plugin-x-socialsharing": {
    "source": {
      "type": "registry",
      "id": "https://github.com/EddyVerbruggen/SocialSharing-PhoneGap-Plugin.git"
    },
    "is_top_level": true,
    "variables": {}
  },
  "es6-promise-plugin": {
    "source": {
      "type": "registry",
      "id": "es6-promise-plugin@4.1.0"
    },
    "is_top_level": false,
    "variables": {}
  },
  "cordova-plugin-customurlscheme": {
    "source": {
      "type": "registry",
      "id": "https://github.com/EddyVerbruggen/Custom-URL-scheme.git"
    },
    "is_top_level": true,
    "variables": {
      "URL_SCHEME": "sunalisclasses.com"
    }
  },
  "cordova-clipboard": {
    "source": {
      "type": "registry",
      "id": "cordova-clipboard"
    },
    "is_top_level": true,
    "variables": {}
  }
}